{
  "spec_list": [
    {
      "boot_config": {
        "boot_device_order": [
          "DISK"
        ],
        "boot_device_type": "DISK",
        "disk_address": {
          "device_bus": "SCSI",
          "device_index": 0
        },
        "uefi_boot": false
      },
      "memory_mb": 4096,
      "name": "unixv008",
      "num_cores_per_vcpu": 1,
      "num_vcpus": 2,
      "override_network_config": true,
      "vm_nics": [
        {
          "adapter_type": "E1000",
          "is_connected": true,
          "network_uuid": "2eb61e78-9d07-4d43-96d9-04249a4e45ce"
        }
      ]
    }
  ],
      "vm_customization_config": {
    "datasource_type": "CONFIG_DRIVE_V2",
    "fresh_install": true,
    "userdata": "#cloud-config\nhostname: unixv008\nfqdn: unixv008.example.com\nruncmd:\n  - [touch, /tmp/ndip.create]\nwrite_files:\n  - content: |\n      DEVICE=eth0\n      BOOTPROTO=\u0027none\u0027\n      NETMASK=\u0027255.255.254.0\u0027\n      IPADDR=\u002710.43.246.178\u0027\n      GATEWAY=\u002710.43.246.1\u0027\n      DNS=\u002710.43.48.10\u0027\n      DNS=\u002710.45.48.10\u0027\n      ONBOOT=\u0027yes\u0027\n    path: /etc/sysconfig/network-scripts/ifcfg-eth0\nruncmd:\n  - [ifdown, eth0]\n  - [ifup, eth0]"
  }
}
